%YAML 1.1
%TAG !u! tag:unity3d.com,2011:
--- !u!114 &11400000
MonoBehaviour:
  m_ObjectHideFlags: 0
  m_CorrespondingSourceObject: {fileID: 0}
  m_PrefabInstance: {fileID: 0}
  m_PrefabAsset: {fileID: 0}
  m_GameObject: {fileID: 0}
  m_Enabled: 1
  m_EditorHideFlags: 0
  m_Script: {fileID: 11500000, guid: de3d52963c7e8424aa3fa4d802fed9dd, type: 3}
  m_Name: IceBuff
  m_EditorClassIdentifier: 
  m_buffType: 2
  m_sprite: {fileID: 21300000, guid: c753158532b2d6741b4e5c43b2a9c438, type: 3}
